G75*
%MOIN*%
%OFA0B0*%
%FSLAX25Y25*%
%IPPOS*%
%LPD*%
%AMOC8*
5,1,8,0,0,1.08239X$1,22.5*
%
%ADD10C,0.00600*%
%ADD11C,0.00400*%
%ADD12C,0.00500*%
%ADD13C,0.00300*%
D10*
X0022600Y0011600D02*
X0025444Y0011600D01*
X0027933Y0011600D02*
X0027933Y0018000D01*
X0030778Y0018000D01*
X0033255Y0018000D02*
X0035033Y0018000D01*
X0033255Y0018000D02*
X0033255Y0011600D01*
X0035033Y0011600D01*
X0035115Y0011602D01*
X0035197Y0011608D01*
X0035279Y0011617D01*
X0035360Y0011630D01*
X0035440Y0011647D01*
X0035520Y0011668D01*
X0035598Y0011692D01*
X0035675Y0011720D01*
X0035751Y0011751D01*
X0035826Y0011786D01*
X0035898Y0011825D01*
X0035969Y0011866D01*
X0036038Y0011911D01*
X0036104Y0011959D01*
X0036169Y0012010D01*
X0036231Y0012064D01*
X0036290Y0012121D01*
X0036347Y0012180D01*
X0036401Y0012242D01*
X0036452Y0012307D01*
X0036500Y0012373D01*
X0036545Y0012442D01*
X0036586Y0012513D01*
X0036625Y0012585D01*
X0036660Y0012660D01*
X0036691Y0012736D01*
X0036719Y0012813D01*
X0036743Y0012891D01*
X0036764Y0012971D01*
X0036781Y0013051D01*
X0036794Y0013132D01*
X0036803Y0013214D01*
X0036809Y0013296D01*
X0036811Y0013378D01*
X0036811Y0016222D01*
X0036809Y0016304D01*
X0036803Y0016386D01*
X0036794Y0016468D01*
X0036781Y0016549D01*
X0036764Y0016629D01*
X0036743Y0016709D01*
X0036719Y0016787D01*
X0036691Y0016864D01*
X0036660Y0016940D01*
X0036625Y0017015D01*
X0036586Y0017087D01*
X0036545Y0017158D01*
X0036500Y0017227D01*
X0036452Y0017293D01*
X0036401Y0017358D01*
X0036347Y0017420D01*
X0036290Y0017479D01*
X0036231Y0017536D01*
X0036169Y0017590D01*
X0036104Y0017641D01*
X0036038Y0017689D01*
X0035969Y0017734D01*
X0035898Y0017775D01*
X0035826Y0017814D01*
X0035751Y0017849D01*
X0035675Y0017880D01*
X0035598Y0017908D01*
X0035520Y0017932D01*
X0035440Y0017953D01*
X0035360Y0017970D01*
X0035279Y0017983D01*
X0035197Y0017992D01*
X0035115Y0017998D01*
X0035033Y0018000D01*
X0039599Y0016578D02*
X0039599Y0013022D01*
X0039601Y0012948D01*
X0039607Y0012873D01*
X0039617Y0012800D01*
X0039630Y0012726D01*
X0039647Y0012654D01*
X0039669Y0012583D01*
X0039693Y0012512D01*
X0039722Y0012444D01*
X0039754Y0012376D01*
X0039790Y0012311D01*
X0039828Y0012248D01*
X0039871Y0012186D01*
X0039916Y0012127D01*
X0039964Y0012070D01*
X0040015Y0012016D01*
X0040069Y0011965D01*
X0040126Y0011917D01*
X0040185Y0011872D01*
X0040247Y0011829D01*
X0040310Y0011791D01*
X0040375Y0011755D01*
X0040443Y0011723D01*
X0040511Y0011694D01*
X0040582Y0011670D01*
X0040653Y0011648D01*
X0040725Y0011631D01*
X0040799Y0011618D01*
X0040872Y0011608D01*
X0040947Y0011602D01*
X0041021Y0011600D01*
X0042443Y0011600D01*
X0044948Y0013378D02*
X0044948Y0018000D01*
X0042443Y0018000D02*
X0041021Y0018000D01*
X0040947Y0017998D01*
X0040872Y0017992D01*
X0040799Y0017982D01*
X0040725Y0017969D01*
X0040653Y0017952D01*
X0040582Y0017930D01*
X0040511Y0017906D01*
X0040443Y0017877D01*
X0040375Y0017845D01*
X0040310Y0017809D01*
X0040247Y0017771D01*
X0040185Y0017728D01*
X0040126Y0017683D01*
X0040069Y0017635D01*
X0040015Y0017584D01*
X0039964Y0017529D01*
X0039916Y0017473D01*
X0039871Y0017414D01*
X0039828Y0017352D01*
X0039790Y0017289D01*
X0039754Y0017224D01*
X0039722Y0017156D01*
X0039693Y0017088D01*
X0039669Y0017017D01*
X0039647Y0016946D01*
X0039630Y0016874D01*
X0039617Y0016800D01*
X0039607Y0016727D01*
X0039601Y0016652D01*
X0039599Y0016578D01*
X0044948Y0013378D02*
X0044950Y0013295D01*
X0044956Y0013212D01*
X0044966Y0013129D01*
X0044979Y0013046D01*
X0044997Y0012965D01*
X0045018Y0012884D01*
X0045043Y0012805D01*
X0045072Y0012727D01*
X0045104Y0012650D01*
X0045140Y0012575D01*
X0045179Y0012501D01*
X0045222Y0012430D01*
X0045268Y0012360D01*
X0045318Y0012293D01*
X0045370Y0012228D01*
X0045425Y0012166D01*
X0045484Y0012106D01*
X0045545Y0012049D01*
X0045608Y0011995D01*
X0045674Y0011944D01*
X0045743Y0011897D01*
X0045813Y0011852D01*
X0045886Y0011811D01*
X0045960Y0011774D01*
X0046036Y0011739D01*
X0046114Y0011709D01*
X0046192Y0011682D01*
X0046273Y0011659D01*
X0046354Y0011639D01*
X0046436Y0011624D01*
X0046518Y0011612D01*
X0046601Y0011604D01*
X0046684Y0011600D01*
X0046768Y0011600D01*
X0046851Y0011604D01*
X0046934Y0011612D01*
X0047016Y0011624D01*
X0047098Y0011639D01*
X0047179Y0011659D01*
X0047260Y0011682D01*
X0047338Y0011709D01*
X0047416Y0011739D01*
X0047492Y0011774D01*
X0047566Y0011811D01*
X0047639Y0011852D01*
X0047709Y0011897D01*
X0047778Y0011944D01*
X0047844Y0011995D01*
X0047907Y0012049D01*
X0047968Y0012106D01*
X0048027Y0012166D01*
X0048082Y0012228D01*
X0048134Y0012293D01*
X0048184Y0012360D01*
X0048230Y0012430D01*
X0048273Y0012501D01*
X0048312Y0012575D01*
X0048348Y0012650D01*
X0048380Y0012727D01*
X0048409Y0012805D01*
X0048434Y0012884D01*
X0048455Y0012965D01*
X0048473Y0013046D01*
X0048486Y0013129D01*
X0048496Y0013212D01*
X0048502Y0013295D01*
X0048504Y0013378D01*
X0048503Y0013378D02*
X0048503Y0018000D01*
X0051595Y0018000D02*
X0053373Y0018000D01*
X0053447Y0017998D01*
X0053522Y0017992D01*
X0053595Y0017982D01*
X0053669Y0017969D01*
X0053741Y0017952D01*
X0053812Y0017930D01*
X0053883Y0017906D01*
X0053951Y0017877D01*
X0054019Y0017845D01*
X0054084Y0017809D01*
X0054147Y0017771D01*
X0054209Y0017728D01*
X0054268Y0017683D01*
X0054325Y0017635D01*
X0054379Y0017584D01*
X0054430Y0017530D01*
X0054478Y0017473D01*
X0054523Y0017414D01*
X0054566Y0017352D01*
X0054604Y0017289D01*
X0054640Y0017224D01*
X0054672Y0017156D01*
X0054701Y0017088D01*
X0054725Y0017017D01*
X0054747Y0016946D01*
X0054764Y0016874D01*
X0054777Y0016800D01*
X0054787Y0016727D01*
X0054793Y0016652D01*
X0054795Y0016578D01*
X0054793Y0016504D01*
X0054787Y0016429D01*
X0054777Y0016356D01*
X0054764Y0016282D01*
X0054747Y0016210D01*
X0054725Y0016139D01*
X0054701Y0016068D01*
X0054672Y0016000D01*
X0054640Y0015932D01*
X0054604Y0015867D01*
X0054566Y0015804D01*
X0054523Y0015742D01*
X0054478Y0015683D01*
X0054430Y0015626D01*
X0054379Y0015572D01*
X0054325Y0015521D01*
X0054268Y0015473D01*
X0054209Y0015428D01*
X0054147Y0015385D01*
X0054084Y0015347D01*
X0054019Y0015311D01*
X0053951Y0015279D01*
X0053883Y0015250D01*
X0053812Y0015226D01*
X0053741Y0015204D01*
X0053669Y0015187D01*
X0053595Y0015174D01*
X0053522Y0015164D01*
X0053447Y0015158D01*
X0053373Y0015156D01*
X0051595Y0015156D01*
X0053373Y0015156D02*
X0053456Y0015154D01*
X0053539Y0015148D01*
X0053622Y0015138D01*
X0053705Y0015125D01*
X0053786Y0015107D01*
X0053867Y0015086D01*
X0053946Y0015061D01*
X0054024Y0015032D01*
X0054101Y0015000D01*
X0054176Y0014964D01*
X0054250Y0014925D01*
X0054321Y0014882D01*
X0054391Y0014836D01*
X0054458Y0014786D01*
X0054523Y0014734D01*
X0054585Y0014679D01*
X0054645Y0014620D01*
X0054702Y0014559D01*
X0054756Y0014496D01*
X0054807Y0014430D01*
X0054854Y0014361D01*
X0054899Y0014291D01*
X0054940Y0014218D01*
X0054977Y0014144D01*
X0055012Y0014068D01*
X0055042Y0013990D01*
X0055069Y0013912D01*
X0055092Y0013831D01*
X0055112Y0013750D01*
X0055127Y0013668D01*
X0055139Y0013586D01*
X0055147Y0013503D01*
X0055151Y0013420D01*
X0055151Y0013336D01*
X0055147Y0013253D01*
X0055139Y0013170D01*
X0055127Y0013088D01*
X0055112Y0013006D01*
X0055092Y0012925D01*
X0055069Y0012844D01*
X0055042Y0012766D01*
X0055012Y0012688D01*
X0054977Y0012612D01*
X0054940Y0012538D01*
X0054899Y0012465D01*
X0054854Y0012395D01*
X0054807Y0012326D01*
X0054756Y0012260D01*
X0054702Y0012197D01*
X0054645Y0012136D01*
X0054585Y0012077D01*
X0054523Y0012022D01*
X0054458Y0011970D01*
X0054391Y0011920D01*
X0054321Y0011874D01*
X0054250Y0011831D01*
X0054176Y0011792D01*
X0054101Y0011756D01*
X0054024Y0011724D01*
X0053946Y0011695D01*
X0053867Y0011670D01*
X0053786Y0011649D01*
X0053705Y0011631D01*
X0053622Y0011618D01*
X0053539Y0011608D01*
X0053456Y0011602D01*
X0053373Y0011600D01*
X0051595Y0011600D01*
X0051595Y0018000D01*
X0057678Y0018000D02*
X0060522Y0018000D01*
X0057678Y0018000D02*
X0057678Y0011600D01*
X0060522Y0011600D01*
X0059811Y0015156D02*
X0057678Y0015156D01*
X0030778Y0011600D02*
X0027933Y0011600D01*
X0027933Y0015156D02*
X0030067Y0015156D01*
X0022600Y0018000D02*
X0022600Y0011600D01*
D11*
X0022500Y0005500D02*
X0025056Y0005500D01*
X0023778Y0005500D02*
X0023778Y0010100D01*
X0022500Y0009078D01*
X0027000Y0005500D02*
X0029556Y0005500D01*
X0031306Y0004989D02*
X0033350Y0010611D01*
X0035100Y0009078D02*
X0036378Y0010100D01*
X0036378Y0005500D01*
X0035100Y0005500D02*
X0037656Y0005500D01*
X0041773Y0006139D02*
X0041821Y0006243D01*
X0041867Y0006348D01*
X0041909Y0006454D01*
X0041948Y0006562D01*
X0041984Y0006671D01*
X0042016Y0006781D01*
X0042046Y0006892D01*
X0042071Y0007004D01*
X0042094Y0007116D01*
X0042113Y0007229D01*
X0042128Y0007343D01*
X0042140Y0007457D01*
X0042149Y0007571D01*
X0042154Y0007685D01*
X0042156Y0007800D01*
X0039600Y0007800D02*
X0039602Y0007915D01*
X0039607Y0008029D01*
X0039616Y0008143D01*
X0039628Y0008257D01*
X0039643Y0008371D01*
X0039662Y0008484D01*
X0039685Y0008596D01*
X0039710Y0008708D01*
X0039740Y0008819D01*
X0039772Y0008929D01*
X0039808Y0009038D01*
X0039847Y0009146D01*
X0039889Y0009252D01*
X0039935Y0009357D01*
X0039983Y0009461D01*
X0040878Y0010100D02*
X0040937Y0010098D01*
X0040995Y0010093D01*
X0041053Y0010084D01*
X0041110Y0010071D01*
X0041167Y0010055D01*
X0041222Y0010035D01*
X0041276Y0010012D01*
X0041328Y0009986D01*
X0041379Y0009956D01*
X0041428Y0009924D01*
X0041475Y0009888D01*
X0041519Y0009850D01*
X0041561Y0009809D01*
X0041600Y0009765D01*
X0041637Y0009719D01*
X0041670Y0009671D01*
X0041701Y0009621D01*
X0041728Y0009569D01*
X0041752Y0009516D01*
X0041773Y0009461D01*
X0041900Y0009078D02*
X0039856Y0006522D01*
X0040878Y0005500D02*
X0040937Y0005502D01*
X0040995Y0005507D01*
X0041053Y0005516D01*
X0041110Y0005529D01*
X0041167Y0005545D01*
X0041222Y0005565D01*
X0041276Y0005588D01*
X0041328Y0005614D01*
X0041379Y0005644D01*
X0041428Y0005676D01*
X0041475Y0005712D01*
X0041519Y0005750D01*
X0041561Y0005791D01*
X0041600Y0005835D01*
X0041637Y0005881D01*
X0041670Y0005929D01*
X0041701Y0005979D01*
X0041728Y0006031D01*
X0041752Y0006084D01*
X0041773Y0006139D01*
X0040878Y0005500D02*
X0040819Y0005502D01*
X0040761Y0005507D01*
X0040703Y0005516D01*
X0040646Y0005529D01*
X0040589Y0005545D01*
X0040534Y0005565D01*
X0040480Y0005588D01*
X0040428Y0005614D01*
X0040377Y0005644D01*
X0040328Y0005676D01*
X0040281Y0005712D01*
X0040237Y0005750D01*
X0040195Y0005791D01*
X0040156Y0005835D01*
X0040119Y0005881D01*
X0040086Y0005929D01*
X0040055Y0005979D01*
X0040028Y0006031D01*
X0040004Y0006084D01*
X0039983Y0006139D01*
X0042156Y0007800D02*
X0042154Y0007915D01*
X0042149Y0008029D01*
X0042140Y0008143D01*
X0042128Y0008257D01*
X0042113Y0008371D01*
X0042094Y0008484D01*
X0042071Y0008596D01*
X0042046Y0008708D01*
X0042016Y0008819D01*
X0041984Y0008929D01*
X0041948Y0009038D01*
X0041909Y0009146D01*
X0041867Y0009252D01*
X0041821Y0009357D01*
X0041773Y0009461D01*
X0040878Y0010100D02*
X0040819Y0010098D01*
X0040761Y0010093D01*
X0040703Y0010084D01*
X0040646Y0010071D01*
X0040589Y0010055D01*
X0040534Y0010035D01*
X0040480Y0010012D01*
X0040428Y0009986D01*
X0040377Y0009956D01*
X0040328Y0009924D01*
X0040281Y0009888D01*
X0040237Y0009850D01*
X0040195Y0009809D01*
X0040156Y0009765D01*
X0040119Y0009719D01*
X0040086Y0009671D01*
X0040055Y0009621D01*
X0040028Y0009569D01*
X0040004Y0009516D01*
X0039983Y0009461D01*
X0039600Y0007800D02*
X0039602Y0007685D01*
X0039607Y0007571D01*
X0039616Y0007457D01*
X0039628Y0007343D01*
X0039643Y0007229D01*
X0039662Y0007116D01*
X0039685Y0007004D01*
X0039710Y0006892D01*
X0039740Y0006781D01*
X0039772Y0006671D01*
X0039808Y0006562D01*
X0039847Y0006454D01*
X0039889Y0006348D01*
X0039935Y0006243D01*
X0039983Y0006139D01*
X0043906Y0004989D02*
X0045950Y0010611D01*
X0050255Y0008950D02*
X0050253Y0008883D01*
X0050248Y0008817D01*
X0050239Y0008751D01*
X0050226Y0008685D01*
X0050210Y0008621D01*
X0050191Y0008557D01*
X0050168Y0008494D01*
X0050142Y0008433D01*
X0050112Y0008373D01*
X0050079Y0008315D01*
X0050044Y0008259D01*
X0050005Y0008205D01*
X0049963Y0008153D01*
X0049919Y0008103D01*
X0049872Y0008056D01*
X0047700Y0005500D01*
X0050255Y0005500D01*
X0054373Y0006139D02*
X0054421Y0006243D01*
X0054467Y0006348D01*
X0054509Y0006454D01*
X0054548Y0006562D01*
X0054584Y0006671D01*
X0054616Y0006781D01*
X0054646Y0006892D01*
X0054671Y0007004D01*
X0054694Y0007116D01*
X0054713Y0007229D01*
X0054728Y0007343D01*
X0054740Y0007457D01*
X0054749Y0007571D01*
X0054754Y0007685D01*
X0054756Y0007800D01*
X0052200Y0007800D02*
X0052202Y0007915D01*
X0052207Y0008029D01*
X0052216Y0008143D01*
X0052228Y0008257D01*
X0052243Y0008371D01*
X0052262Y0008484D01*
X0052285Y0008596D01*
X0052310Y0008708D01*
X0052340Y0008819D01*
X0052372Y0008929D01*
X0052408Y0009038D01*
X0052447Y0009146D01*
X0052489Y0009252D01*
X0052535Y0009357D01*
X0052583Y0009461D01*
X0053478Y0010100D02*
X0053537Y0010098D01*
X0053595Y0010093D01*
X0053653Y0010084D01*
X0053710Y0010071D01*
X0053767Y0010055D01*
X0053822Y0010035D01*
X0053876Y0010012D01*
X0053928Y0009986D01*
X0053979Y0009956D01*
X0054028Y0009924D01*
X0054075Y0009888D01*
X0054119Y0009850D01*
X0054161Y0009809D01*
X0054200Y0009765D01*
X0054237Y0009719D01*
X0054270Y0009671D01*
X0054301Y0009621D01*
X0054328Y0009569D01*
X0054352Y0009516D01*
X0054373Y0009461D01*
X0054500Y0009078D02*
X0052455Y0006522D01*
X0053478Y0005500D02*
X0053537Y0005502D01*
X0053595Y0005507D01*
X0053653Y0005516D01*
X0053710Y0005529D01*
X0053767Y0005545D01*
X0053822Y0005565D01*
X0053876Y0005588D01*
X0053928Y0005614D01*
X0053979Y0005644D01*
X0054028Y0005676D01*
X0054075Y0005712D01*
X0054119Y0005750D01*
X0054161Y0005791D01*
X0054200Y0005835D01*
X0054237Y0005881D01*
X0054270Y0005929D01*
X0054301Y0005979D01*
X0054328Y0006031D01*
X0054352Y0006084D01*
X0054373Y0006139D01*
X0053478Y0005500D02*
X0053419Y0005502D01*
X0053361Y0005507D01*
X0053303Y0005516D01*
X0053246Y0005529D01*
X0053189Y0005545D01*
X0053134Y0005565D01*
X0053080Y0005588D01*
X0053028Y0005614D01*
X0052977Y0005644D01*
X0052928Y0005676D01*
X0052881Y0005712D01*
X0052837Y0005750D01*
X0052795Y0005791D01*
X0052756Y0005835D01*
X0052719Y0005881D01*
X0052686Y0005929D01*
X0052655Y0005979D01*
X0052628Y0006031D01*
X0052604Y0006084D01*
X0052583Y0006139D01*
X0054756Y0007800D02*
X0054754Y0007915D01*
X0054749Y0008029D01*
X0054740Y0008143D01*
X0054728Y0008257D01*
X0054713Y0008371D01*
X0054694Y0008484D01*
X0054671Y0008596D01*
X0054646Y0008708D01*
X0054616Y0008819D01*
X0054584Y0008929D01*
X0054548Y0009038D01*
X0054509Y0009146D01*
X0054467Y0009252D01*
X0054421Y0009357D01*
X0054373Y0009461D01*
X0053478Y0010100D02*
X0053419Y0010098D01*
X0053361Y0010093D01*
X0053303Y0010084D01*
X0053246Y0010071D01*
X0053189Y0010055D01*
X0053134Y0010035D01*
X0053080Y0010012D01*
X0053028Y0009986D01*
X0052977Y0009956D01*
X0052928Y0009924D01*
X0052881Y0009888D01*
X0052837Y0009850D01*
X0052795Y0009809D01*
X0052756Y0009765D01*
X0052719Y0009719D01*
X0052686Y0009671D01*
X0052655Y0009621D01*
X0052628Y0009569D01*
X0052604Y0009516D01*
X0052583Y0009461D01*
X0050255Y0008950D02*
X0050253Y0009017D01*
X0050247Y0009084D01*
X0050238Y0009150D01*
X0050224Y0009215D01*
X0050207Y0009280D01*
X0050186Y0009343D01*
X0050161Y0009405D01*
X0050133Y0009466D01*
X0050101Y0009525D01*
X0050066Y0009582D01*
X0050027Y0009637D01*
X0049986Y0009689D01*
X0049941Y0009739D01*
X0049894Y0009786D01*
X0049844Y0009831D01*
X0049792Y0009872D01*
X0049737Y0009911D01*
X0049680Y0009946D01*
X0049621Y0009978D01*
X0049560Y0010006D01*
X0049498Y0010031D01*
X0049435Y0010052D01*
X0049370Y0010069D01*
X0049305Y0010083D01*
X0049239Y0010092D01*
X0049172Y0010098D01*
X0049105Y0010100D01*
X0049031Y0010098D01*
X0048957Y0010093D01*
X0048883Y0010083D01*
X0048810Y0010070D01*
X0048737Y0010054D01*
X0048666Y0010033D01*
X0048596Y0010009D01*
X0048527Y0009982D01*
X0048459Y0009951D01*
X0048393Y0009917D01*
X0048329Y0009880D01*
X0048267Y0009839D01*
X0048207Y0009795D01*
X0048149Y0009749D01*
X0048093Y0009699D01*
X0048040Y0009647D01*
X0047990Y0009592D01*
X0047943Y0009535D01*
X0047899Y0009475D01*
X0047857Y0009413D01*
X0047819Y0009350D01*
X0047784Y0009284D01*
X0047753Y0009217D01*
X0047725Y0009148D01*
X0047700Y0009078D01*
X0052200Y0007800D02*
X0052202Y0007685D01*
X0052207Y0007571D01*
X0052216Y0007457D01*
X0052228Y0007343D01*
X0052243Y0007229D01*
X0052262Y0007116D01*
X0052285Y0007004D01*
X0052310Y0006892D01*
X0052340Y0006781D01*
X0052372Y0006671D01*
X0052408Y0006562D01*
X0052447Y0006454D01*
X0052489Y0006348D01*
X0052535Y0006243D01*
X0052583Y0006139D01*
X0056700Y0005500D02*
X0059255Y0005500D01*
X0057978Y0005500D02*
X0057978Y0010100D01*
X0056700Y0009078D01*
X0061456Y0009078D02*
X0061458Y0009015D01*
X0061464Y0008952D01*
X0061473Y0008890D01*
X0061487Y0008829D01*
X0061504Y0008768D01*
X0061525Y0008709D01*
X0061550Y0008651D01*
X0061578Y0008594D01*
X0061609Y0008540D01*
X0061644Y0008488D01*
X0061682Y0008437D01*
X0061723Y0008389D01*
X0061767Y0008344D01*
X0061813Y0008302D01*
X0061862Y0008262D01*
X0061913Y0008226D01*
X0061967Y0008193D01*
X0062022Y0008163D01*
X0062080Y0008137D01*
X0062138Y0008114D01*
X0062198Y0008095D01*
X0062259Y0008080D01*
X0062321Y0008068D01*
X0062384Y0008060D01*
X0062447Y0008056D01*
X0062509Y0008056D01*
X0062572Y0008060D01*
X0062635Y0008068D01*
X0062697Y0008080D01*
X0062758Y0008095D01*
X0062818Y0008114D01*
X0062876Y0008137D01*
X0062934Y0008163D01*
X0062989Y0008193D01*
X0063043Y0008226D01*
X0063094Y0008262D01*
X0063143Y0008302D01*
X0063189Y0008344D01*
X0063233Y0008389D01*
X0063274Y0008437D01*
X0063312Y0008488D01*
X0063347Y0008540D01*
X0063378Y0008594D01*
X0063406Y0008651D01*
X0063431Y0008709D01*
X0063452Y0008768D01*
X0063469Y0008829D01*
X0063483Y0008890D01*
X0063492Y0008952D01*
X0063498Y0009015D01*
X0063500Y0009078D01*
X0063498Y0009141D01*
X0063492Y0009204D01*
X0063483Y0009266D01*
X0063469Y0009327D01*
X0063452Y0009388D01*
X0063431Y0009447D01*
X0063406Y0009505D01*
X0063378Y0009562D01*
X0063347Y0009616D01*
X0063312Y0009668D01*
X0063274Y0009719D01*
X0063233Y0009767D01*
X0063189Y0009812D01*
X0063143Y0009854D01*
X0063094Y0009894D01*
X0063043Y0009930D01*
X0062989Y0009963D01*
X0062934Y0009993D01*
X0062876Y0010019D01*
X0062818Y0010042D01*
X0062758Y0010061D01*
X0062697Y0010076D01*
X0062635Y0010088D01*
X0062572Y0010096D01*
X0062509Y0010100D01*
X0062447Y0010100D01*
X0062384Y0010096D01*
X0062321Y0010088D01*
X0062259Y0010076D01*
X0062198Y0010061D01*
X0062138Y0010042D01*
X0062080Y0010019D01*
X0062022Y0009993D01*
X0061967Y0009963D01*
X0061913Y0009930D01*
X0061862Y0009894D01*
X0061813Y0009854D01*
X0061767Y0009812D01*
X0061723Y0009767D01*
X0061682Y0009719D01*
X0061644Y0009668D01*
X0061609Y0009616D01*
X0061578Y0009562D01*
X0061550Y0009505D01*
X0061525Y0009447D01*
X0061504Y0009388D01*
X0061487Y0009327D01*
X0061473Y0009266D01*
X0061464Y0009204D01*
X0061458Y0009141D01*
X0061456Y0009078D01*
X0061200Y0006778D02*
X0061202Y0006708D01*
X0061208Y0006637D01*
X0061217Y0006568D01*
X0061231Y0006499D01*
X0061248Y0006430D01*
X0061269Y0006363D01*
X0061294Y0006297D01*
X0061322Y0006233D01*
X0061354Y0006170D01*
X0061389Y0006109D01*
X0061428Y0006050D01*
X0061469Y0005993D01*
X0061514Y0005939D01*
X0061562Y0005887D01*
X0061612Y0005838D01*
X0061666Y0005791D01*
X0061721Y0005748D01*
X0061779Y0005708D01*
X0061839Y0005671D01*
X0061901Y0005638D01*
X0061965Y0005608D01*
X0062030Y0005581D01*
X0062096Y0005558D01*
X0062164Y0005539D01*
X0062233Y0005524D01*
X0062302Y0005512D01*
X0062372Y0005504D01*
X0062443Y0005500D01*
X0062513Y0005500D01*
X0062584Y0005504D01*
X0062654Y0005512D01*
X0062723Y0005524D01*
X0062792Y0005539D01*
X0062860Y0005558D01*
X0062926Y0005581D01*
X0062991Y0005608D01*
X0063055Y0005638D01*
X0063117Y0005671D01*
X0063177Y0005708D01*
X0063235Y0005748D01*
X0063290Y0005791D01*
X0063344Y0005838D01*
X0063394Y0005887D01*
X0063442Y0005939D01*
X0063487Y0005993D01*
X0063528Y0006050D01*
X0063567Y0006109D01*
X0063602Y0006170D01*
X0063634Y0006233D01*
X0063662Y0006297D01*
X0063687Y0006363D01*
X0063708Y0006430D01*
X0063725Y0006499D01*
X0063739Y0006568D01*
X0063748Y0006637D01*
X0063754Y0006708D01*
X0063756Y0006778D01*
X0063754Y0006848D01*
X0063748Y0006919D01*
X0063739Y0006988D01*
X0063725Y0007057D01*
X0063708Y0007126D01*
X0063687Y0007193D01*
X0063662Y0007259D01*
X0063634Y0007323D01*
X0063602Y0007386D01*
X0063567Y0007447D01*
X0063528Y0007506D01*
X0063487Y0007563D01*
X0063442Y0007617D01*
X0063394Y0007669D01*
X0063344Y0007718D01*
X0063290Y0007765D01*
X0063235Y0007808D01*
X0063177Y0007848D01*
X0063117Y0007885D01*
X0063055Y0007918D01*
X0062991Y0007948D01*
X0062926Y0007975D01*
X0062860Y0007998D01*
X0062792Y0008017D01*
X0062723Y0008032D01*
X0062654Y0008044D01*
X0062584Y0008052D01*
X0062513Y0008056D01*
X0062443Y0008056D01*
X0062372Y0008052D01*
X0062302Y0008044D01*
X0062233Y0008032D01*
X0062164Y0008017D01*
X0062096Y0007998D01*
X0062030Y0007975D01*
X0061965Y0007948D01*
X0061901Y0007918D01*
X0061839Y0007885D01*
X0061779Y0007848D01*
X0061721Y0007808D01*
X0061666Y0007765D01*
X0061612Y0007718D01*
X0061562Y0007669D01*
X0061514Y0007617D01*
X0061469Y0007563D01*
X0061428Y0007506D01*
X0061389Y0007447D01*
X0061354Y0007386D01*
X0061322Y0007323D01*
X0061294Y0007259D01*
X0061269Y0007193D01*
X0061248Y0007126D01*
X0061231Y0007057D01*
X0061217Y0006988D01*
X0061208Y0006919D01*
X0061202Y0006848D01*
X0061200Y0006778D01*
X0078955Y0012798D02*
X0078955Y0015353D01*
X0078957Y0015415D01*
X0078962Y0015476D01*
X0078972Y0015537D01*
X0078985Y0015598D01*
X0079001Y0015657D01*
X0079021Y0015715D01*
X0079045Y0015772D01*
X0079072Y0015828D01*
X0079102Y0015882D01*
X0079136Y0015934D01*
X0079172Y0015983D01*
X0079212Y0016031D01*
X0079254Y0016076D01*
X0079299Y0016118D01*
X0079347Y0016157D01*
X0079396Y0016194D01*
X0079448Y0016228D01*
X0079502Y0016258D01*
X0079558Y0016285D01*
X0079615Y0016309D01*
X0079673Y0016329D01*
X0079732Y0016345D01*
X0079793Y0016358D01*
X0079854Y0016368D01*
X0079915Y0016373D01*
X0079977Y0016375D01*
X0079977Y0016376D02*
X0080999Y0016376D01*
X0084890Y0014332D02*
X0084937Y0014379D01*
X0084981Y0014429D01*
X0085023Y0014481D01*
X0085062Y0014535D01*
X0085097Y0014591D01*
X0085130Y0014649D01*
X0085160Y0014709D01*
X0085186Y0014770D01*
X0085209Y0014833D01*
X0085228Y0014897D01*
X0085244Y0014961D01*
X0085257Y0015027D01*
X0085266Y0015093D01*
X0085271Y0015159D01*
X0085273Y0015226D01*
X0084890Y0014331D02*
X0082718Y0011776D01*
X0085273Y0011776D01*
X0082718Y0015353D02*
X0082743Y0015423D01*
X0082771Y0015492D01*
X0082802Y0015559D01*
X0082837Y0015625D01*
X0082875Y0015688D01*
X0082917Y0015750D01*
X0082961Y0015810D01*
X0083008Y0015867D01*
X0083058Y0015922D01*
X0083111Y0015974D01*
X0083167Y0016024D01*
X0083225Y0016070D01*
X0083285Y0016114D01*
X0083347Y0016155D01*
X0083411Y0016192D01*
X0083477Y0016226D01*
X0083545Y0016257D01*
X0083614Y0016284D01*
X0083684Y0016308D01*
X0083755Y0016329D01*
X0083828Y0016345D01*
X0083901Y0016358D01*
X0083975Y0016368D01*
X0084049Y0016373D01*
X0084123Y0016375D01*
X0084123Y0016376D02*
X0084190Y0016374D01*
X0084257Y0016368D01*
X0084323Y0016359D01*
X0084388Y0016345D01*
X0084453Y0016328D01*
X0084516Y0016307D01*
X0084578Y0016282D01*
X0084639Y0016254D01*
X0084698Y0016222D01*
X0084755Y0016187D01*
X0084810Y0016148D01*
X0084862Y0016107D01*
X0084912Y0016062D01*
X0084959Y0016015D01*
X0085004Y0015965D01*
X0085045Y0015913D01*
X0085084Y0015858D01*
X0085119Y0015801D01*
X0085151Y0015742D01*
X0085179Y0015681D01*
X0085204Y0015619D01*
X0085225Y0015556D01*
X0085242Y0015491D01*
X0085256Y0015426D01*
X0085265Y0015360D01*
X0085271Y0015293D01*
X0085273Y0015226D01*
X0080999Y0011776D02*
X0079977Y0011776D01*
X0079915Y0011778D01*
X0079854Y0011783D01*
X0079793Y0011793D01*
X0079732Y0011806D01*
X0079673Y0011822D01*
X0079615Y0011842D01*
X0079558Y0011866D01*
X0079502Y0011893D01*
X0079448Y0011923D01*
X0079396Y0011957D01*
X0079347Y0011993D01*
X0079299Y0012033D01*
X0079254Y0012075D01*
X0079212Y0012120D01*
X0079172Y0012168D01*
X0079136Y0012217D01*
X0079102Y0012269D01*
X0079072Y0012323D01*
X0079045Y0012379D01*
X0079021Y0012436D01*
X0079001Y0012494D01*
X0078985Y0012553D01*
X0078972Y0012614D01*
X0078962Y0012675D01*
X0078957Y0012736D01*
X0078955Y0012798D01*
X0029172Y0008056D02*
X0027000Y0005500D01*
X0027001Y0009078D02*
X0027026Y0009148D01*
X0027054Y0009217D01*
X0027085Y0009284D01*
X0027120Y0009350D01*
X0027158Y0009413D01*
X0027200Y0009475D01*
X0027244Y0009535D01*
X0027291Y0009592D01*
X0027341Y0009647D01*
X0027394Y0009699D01*
X0027450Y0009749D01*
X0027508Y0009795D01*
X0027568Y0009839D01*
X0027630Y0009880D01*
X0027694Y0009917D01*
X0027760Y0009951D01*
X0027828Y0009982D01*
X0027897Y0010009D01*
X0027967Y0010033D01*
X0028038Y0010054D01*
X0028111Y0010070D01*
X0028184Y0010083D01*
X0028258Y0010093D01*
X0028332Y0010098D01*
X0028406Y0010100D01*
X0028473Y0010098D01*
X0028540Y0010092D01*
X0028606Y0010083D01*
X0028671Y0010069D01*
X0028736Y0010052D01*
X0028799Y0010031D01*
X0028861Y0010006D01*
X0028922Y0009978D01*
X0028981Y0009946D01*
X0029038Y0009911D01*
X0029093Y0009872D01*
X0029145Y0009831D01*
X0029195Y0009786D01*
X0029242Y0009739D01*
X0029287Y0009689D01*
X0029328Y0009637D01*
X0029367Y0009582D01*
X0029402Y0009525D01*
X0029434Y0009466D01*
X0029462Y0009405D01*
X0029487Y0009343D01*
X0029508Y0009280D01*
X0029525Y0009215D01*
X0029539Y0009150D01*
X0029548Y0009084D01*
X0029554Y0009017D01*
X0029556Y0008950D01*
X0029555Y0008950D02*
X0029553Y0008883D01*
X0029548Y0008817D01*
X0029539Y0008751D01*
X0029526Y0008685D01*
X0029510Y0008621D01*
X0029491Y0008557D01*
X0029468Y0008494D01*
X0029442Y0008433D01*
X0029412Y0008373D01*
X0029379Y0008315D01*
X0029344Y0008259D01*
X0029305Y0008205D01*
X0029263Y0008153D01*
X0029219Y0008103D01*
X0029172Y0008056D01*
X0011273Y0075185D02*
X0009739Y0075185D01*
X0011273Y0075185D02*
X0011335Y0075187D01*
X0011396Y0075192D01*
X0011457Y0075202D01*
X0011518Y0075215D01*
X0011577Y0075231D01*
X0011635Y0075251D01*
X0011692Y0075275D01*
X0011748Y0075302D01*
X0011802Y0075332D01*
X0011854Y0075366D01*
X0011903Y0075402D01*
X0011951Y0075442D01*
X0011996Y0075484D01*
X0012038Y0075529D01*
X0012078Y0075577D01*
X0012114Y0075626D01*
X0012148Y0075678D01*
X0012178Y0075732D01*
X0012205Y0075788D01*
X0012229Y0075845D01*
X0012249Y0075903D01*
X0012265Y0075962D01*
X0012278Y0076023D01*
X0012288Y0076084D01*
X0012293Y0076145D01*
X0012295Y0076207D01*
X0012295Y0076718D01*
X0012293Y0076780D01*
X0012288Y0076841D01*
X0012278Y0076902D01*
X0012265Y0076963D01*
X0012249Y0077022D01*
X0012229Y0077080D01*
X0012205Y0077137D01*
X0012178Y0077193D01*
X0012148Y0077247D01*
X0012114Y0077299D01*
X0012078Y0077348D01*
X0012038Y0077396D01*
X0011996Y0077441D01*
X0011951Y0077483D01*
X0011903Y0077523D01*
X0011854Y0077559D01*
X0011802Y0077593D01*
X0011748Y0077623D01*
X0011692Y0077650D01*
X0011635Y0077674D01*
X0011577Y0077694D01*
X0011518Y0077710D01*
X0011457Y0077723D01*
X0011396Y0077733D01*
X0011335Y0077738D01*
X0011273Y0077740D01*
X0011273Y0077741D02*
X0009739Y0077741D01*
X0009739Y0079785D01*
X0012295Y0079785D01*
X0007663Y0079785D02*
X0007663Y0076207D01*
X0007661Y0076145D01*
X0007656Y0076084D01*
X0007646Y0076023D01*
X0007633Y0075962D01*
X0007617Y0075903D01*
X0007597Y0075845D01*
X0007573Y0075788D01*
X0007546Y0075732D01*
X0007516Y0075678D01*
X0007482Y0075626D01*
X0007446Y0075577D01*
X0007406Y0075529D01*
X0007364Y0075484D01*
X0007319Y0075442D01*
X0007271Y0075402D01*
X0007222Y0075366D01*
X0007170Y0075332D01*
X0007116Y0075302D01*
X0007060Y0075275D01*
X0007003Y0075251D01*
X0006945Y0075231D01*
X0006886Y0075215D01*
X0006825Y0075202D01*
X0006764Y0075192D01*
X0006703Y0075187D01*
X0006641Y0075185D01*
X0006130Y0075185D01*
X0035804Y0139500D02*
X0036826Y0139500D01*
X0035804Y0139500D02*
X0035742Y0139502D01*
X0035681Y0139507D01*
X0035620Y0139517D01*
X0035559Y0139530D01*
X0035500Y0139546D01*
X0035442Y0139566D01*
X0035385Y0139590D01*
X0035329Y0139617D01*
X0035275Y0139647D01*
X0035223Y0139681D01*
X0035174Y0139717D01*
X0035126Y0139757D01*
X0035081Y0139799D01*
X0035039Y0139844D01*
X0034999Y0139892D01*
X0034963Y0139941D01*
X0034929Y0139993D01*
X0034899Y0140047D01*
X0034872Y0140103D01*
X0034848Y0140160D01*
X0034828Y0140218D01*
X0034812Y0140277D01*
X0034799Y0140338D01*
X0034789Y0140399D01*
X0034784Y0140460D01*
X0034782Y0140522D01*
X0034781Y0140522D02*
X0034781Y0143078D01*
X0034782Y0143078D02*
X0034784Y0143140D01*
X0034789Y0143201D01*
X0034799Y0143262D01*
X0034812Y0143323D01*
X0034828Y0143382D01*
X0034848Y0143440D01*
X0034872Y0143497D01*
X0034899Y0143553D01*
X0034929Y0143607D01*
X0034963Y0143659D01*
X0034999Y0143708D01*
X0035039Y0143756D01*
X0035081Y0143801D01*
X0035126Y0143843D01*
X0035174Y0143882D01*
X0035223Y0143919D01*
X0035275Y0143953D01*
X0035329Y0143983D01*
X0035385Y0144010D01*
X0035442Y0144034D01*
X0035500Y0144054D01*
X0035559Y0144070D01*
X0035620Y0144083D01*
X0035681Y0144093D01*
X0035742Y0144098D01*
X0035804Y0144100D01*
X0036826Y0144100D01*
X0038544Y0143078D02*
X0039822Y0144100D01*
X0039822Y0139500D01*
X0038544Y0139500D02*
X0041100Y0139500D01*
X0085500Y0159278D02*
X0085500Y0162600D01*
X0088056Y0162600D02*
X0088056Y0159278D01*
X0088054Y0159208D01*
X0088048Y0159137D01*
X0088039Y0159068D01*
X0088025Y0158999D01*
X0088008Y0158930D01*
X0087987Y0158863D01*
X0087962Y0158797D01*
X0087934Y0158733D01*
X0087902Y0158670D01*
X0087867Y0158609D01*
X0087828Y0158550D01*
X0087787Y0158493D01*
X0087742Y0158439D01*
X0087694Y0158387D01*
X0087644Y0158338D01*
X0087590Y0158291D01*
X0087535Y0158248D01*
X0087477Y0158208D01*
X0087417Y0158171D01*
X0087355Y0158138D01*
X0087291Y0158108D01*
X0087226Y0158081D01*
X0087160Y0158058D01*
X0087092Y0158039D01*
X0087023Y0158024D01*
X0086954Y0158012D01*
X0086884Y0158004D01*
X0086813Y0158000D01*
X0086743Y0158000D01*
X0086672Y0158004D01*
X0086602Y0158012D01*
X0086533Y0158024D01*
X0086464Y0158039D01*
X0086396Y0158058D01*
X0086330Y0158081D01*
X0086265Y0158108D01*
X0086201Y0158138D01*
X0086139Y0158171D01*
X0086079Y0158208D01*
X0086021Y0158248D01*
X0085966Y0158291D01*
X0085912Y0158338D01*
X0085862Y0158387D01*
X0085814Y0158439D01*
X0085769Y0158493D01*
X0085728Y0158550D01*
X0085689Y0158609D01*
X0085654Y0158670D01*
X0085622Y0158733D01*
X0085594Y0158797D01*
X0085569Y0158863D01*
X0085548Y0158930D01*
X0085531Y0158999D01*
X0085517Y0159068D01*
X0085508Y0159137D01*
X0085502Y0159208D01*
X0085500Y0159278D01*
X0090150Y0159022D02*
X0092706Y0159022D01*
X0091939Y0160044D02*
X0091939Y0158000D01*
X0090150Y0159022D02*
X0091172Y0162600D01*
X0104349Y0148824D02*
X0105371Y0148824D01*
X0104349Y0148824D02*
X0104287Y0148822D01*
X0104226Y0148817D01*
X0104165Y0148807D01*
X0104104Y0148794D01*
X0104045Y0148778D01*
X0103987Y0148758D01*
X0103930Y0148734D01*
X0103874Y0148707D01*
X0103820Y0148677D01*
X0103768Y0148643D01*
X0103719Y0148606D01*
X0103671Y0148567D01*
X0103626Y0148525D01*
X0103584Y0148480D01*
X0103544Y0148432D01*
X0103508Y0148383D01*
X0103474Y0148331D01*
X0103444Y0148277D01*
X0103417Y0148221D01*
X0103393Y0148164D01*
X0103373Y0148106D01*
X0103357Y0148047D01*
X0103344Y0147986D01*
X0103334Y0147925D01*
X0103329Y0147864D01*
X0103327Y0147802D01*
X0103327Y0145247D01*
X0103329Y0145185D01*
X0103334Y0145124D01*
X0103344Y0145063D01*
X0103357Y0145002D01*
X0103373Y0144943D01*
X0103393Y0144885D01*
X0103417Y0144828D01*
X0103444Y0144772D01*
X0103474Y0144718D01*
X0103508Y0144666D01*
X0103544Y0144617D01*
X0103584Y0144569D01*
X0103626Y0144524D01*
X0103671Y0144482D01*
X0103719Y0144442D01*
X0103768Y0144406D01*
X0103820Y0144372D01*
X0103874Y0144342D01*
X0103930Y0144315D01*
X0103987Y0144291D01*
X0104045Y0144271D01*
X0104104Y0144255D01*
X0104165Y0144242D01*
X0104226Y0144232D01*
X0104287Y0144227D01*
X0104349Y0144225D01*
X0104349Y0144224D02*
X0105371Y0144224D01*
X0107090Y0144224D02*
X0108623Y0144224D01*
X0108623Y0144225D02*
X0108685Y0144227D01*
X0108746Y0144232D01*
X0108807Y0144242D01*
X0108868Y0144255D01*
X0108927Y0144271D01*
X0108985Y0144291D01*
X0109042Y0144315D01*
X0109098Y0144342D01*
X0109152Y0144372D01*
X0109204Y0144406D01*
X0109253Y0144442D01*
X0109301Y0144482D01*
X0109346Y0144524D01*
X0109388Y0144569D01*
X0109428Y0144617D01*
X0109464Y0144666D01*
X0109498Y0144718D01*
X0109528Y0144772D01*
X0109555Y0144828D01*
X0109579Y0144885D01*
X0109599Y0144943D01*
X0109615Y0145002D01*
X0109628Y0145063D01*
X0109638Y0145124D01*
X0109643Y0145185D01*
X0109645Y0145247D01*
X0109645Y0145758D01*
X0109643Y0145820D01*
X0109638Y0145881D01*
X0109628Y0145942D01*
X0109615Y0146003D01*
X0109599Y0146062D01*
X0109579Y0146120D01*
X0109555Y0146177D01*
X0109528Y0146233D01*
X0109498Y0146287D01*
X0109464Y0146339D01*
X0109428Y0146388D01*
X0109388Y0146436D01*
X0109346Y0146481D01*
X0109301Y0146523D01*
X0109253Y0146563D01*
X0109204Y0146599D01*
X0109152Y0146633D01*
X0109098Y0146663D01*
X0109042Y0146690D01*
X0108985Y0146714D01*
X0108927Y0146734D01*
X0108868Y0146750D01*
X0108807Y0146763D01*
X0108746Y0146773D01*
X0108685Y0146778D01*
X0108623Y0146780D01*
X0107090Y0146780D01*
X0107090Y0148824D01*
X0109645Y0148824D01*
X0130327Y0147802D02*
X0130327Y0145247D01*
X0130329Y0145185D01*
X0130334Y0145124D01*
X0130344Y0145063D01*
X0130357Y0145002D01*
X0130373Y0144943D01*
X0130393Y0144885D01*
X0130417Y0144828D01*
X0130444Y0144772D01*
X0130474Y0144718D01*
X0130508Y0144666D01*
X0130544Y0144617D01*
X0130584Y0144569D01*
X0130626Y0144524D01*
X0130671Y0144482D01*
X0130719Y0144442D01*
X0130768Y0144406D01*
X0130820Y0144372D01*
X0130874Y0144342D01*
X0130930Y0144315D01*
X0130987Y0144291D01*
X0131045Y0144271D01*
X0131104Y0144255D01*
X0131165Y0144242D01*
X0131226Y0144232D01*
X0131287Y0144227D01*
X0131349Y0144225D01*
X0131349Y0144224D02*
X0132371Y0144224D01*
X0134090Y0144224D02*
X0135368Y0144224D01*
X0135438Y0144226D01*
X0135509Y0144232D01*
X0135578Y0144241D01*
X0135647Y0144255D01*
X0135716Y0144272D01*
X0135783Y0144293D01*
X0135849Y0144318D01*
X0135913Y0144346D01*
X0135976Y0144378D01*
X0136037Y0144413D01*
X0136096Y0144452D01*
X0136153Y0144493D01*
X0136207Y0144538D01*
X0136259Y0144586D01*
X0136308Y0144636D01*
X0136355Y0144690D01*
X0136398Y0144745D01*
X0136438Y0144803D01*
X0136475Y0144863D01*
X0136508Y0144925D01*
X0136538Y0144989D01*
X0136565Y0145054D01*
X0136588Y0145120D01*
X0136607Y0145188D01*
X0136622Y0145257D01*
X0136634Y0145326D01*
X0136642Y0145396D01*
X0136646Y0145467D01*
X0136646Y0145537D01*
X0136642Y0145608D01*
X0136634Y0145678D01*
X0136622Y0145747D01*
X0136607Y0145816D01*
X0136588Y0145884D01*
X0136565Y0145950D01*
X0136538Y0146015D01*
X0136508Y0146079D01*
X0136475Y0146141D01*
X0136438Y0146201D01*
X0136398Y0146259D01*
X0136355Y0146314D01*
X0136308Y0146368D01*
X0136259Y0146418D01*
X0136207Y0146466D01*
X0136153Y0146511D01*
X0136096Y0146552D01*
X0136037Y0146591D01*
X0135976Y0146626D01*
X0135913Y0146658D01*
X0135849Y0146686D01*
X0135783Y0146711D01*
X0135716Y0146732D01*
X0135647Y0146749D01*
X0135578Y0146763D01*
X0135509Y0146772D01*
X0135438Y0146778D01*
X0135368Y0146780D01*
X0135623Y0146780D02*
X0134601Y0146780D01*
X0135623Y0146780D02*
X0135686Y0146782D01*
X0135749Y0146788D01*
X0135811Y0146797D01*
X0135872Y0146811D01*
X0135933Y0146828D01*
X0135992Y0146849D01*
X0136050Y0146874D01*
X0136107Y0146902D01*
X0136161Y0146933D01*
X0136213Y0146968D01*
X0136264Y0147006D01*
X0136312Y0147047D01*
X0136357Y0147091D01*
X0136399Y0147137D01*
X0136439Y0147186D01*
X0136475Y0147237D01*
X0136508Y0147291D01*
X0136538Y0147346D01*
X0136564Y0147404D01*
X0136587Y0147462D01*
X0136606Y0147522D01*
X0136621Y0147583D01*
X0136633Y0147645D01*
X0136641Y0147708D01*
X0136645Y0147771D01*
X0136645Y0147833D01*
X0136641Y0147896D01*
X0136633Y0147959D01*
X0136621Y0148021D01*
X0136606Y0148082D01*
X0136587Y0148142D01*
X0136564Y0148200D01*
X0136538Y0148258D01*
X0136508Y0148313D01*
X0136475Y0148367D01*
X0136439Y0148418D01*
X0136399Y0148467D01*
X0136357Y0148513D01*
X0136312Y0148557D01*
X0136264Y0148598D01*
X0136213Y0148636D01*
X0136161Y0148671D01*
X0136107Y0148702D01*
X0136050Y0148730D01*
X0135992Y0148755D01*
X0135933Y0148776D01*
X0135872Y0148793D01*
X0135811Y0148807D01*
X0135749Y0148816D01*
X0135686Y0148822D01*
X0135623Y0148824D01*
X0134090Y0148824D01*
X0132371Y0148824D02*
X0131349Y0148824D01*
X0131287Y0148822D01*
X0131226Y0148817D01*
X0131165Y0148807D01*
X0131104Y0148794D01*
X0131045Y0148778D01*
X0130987Y0148758D01*
X0130930Y0148734D01*
X0130874Y0148707D01*
X0130820Y0148677D01*
X0130768Y0148643D01*
X0130719Y0148606D01*
X0130671Y0148567D01*
X0130626Y0148525D01*
X0130584Y0148480D01*
X0130544Y0148432D01*
X0130508Y0148383D01*
X0130474Y0148331D01*
X0130444Y0148277D01*
X0130417Y0148221D01*
X0130393Y0148164D01*
X0130373Y0148106D01*
X0130357Y0148047D01*
X0130344Y0147986D01*
X0130334Y0147925D01*
X0130329Y0147864D01*
X0130327Y0147802D01*
X0124056Y0127100D02*
X0124056Y0123778D01*
X0124054Y0123708D01*
X0124048Y0123637D01*
X0124039Y0123568D01*
X0124025Y0123499D01*
X0124008Y0123430D01*
X0123987Y0123363D01*
X0123962Y0123297D01*
X0123934Y0123233D01*
X0123902Y0123170D01*
X0123867Y0123109D01*
X0123828Y0123050D01*
X0123787Y0122993D01*
X0123742Y0122939D01*
X0123694Y0122887D01*
X0123644Y0122838D01*
X0123590Y0122791D01*
X0123535Y0122748D01*
X0123477Y0122708D01*
X0123417Y0122671D01*
X0123355Y0122638D01*
X0123291Y0122608D01*
X0123226Y0122581D01*
X0123160Y0122558D01*
X0123092Y0122539D01*
X0123023Y0122524D01*
X0122954Y0122512D01*
X0122884Y0122504D01*
X0122813Y0122500D01*
X0122743Y0122500D01*
X0122672Y0122504D01*
X0122602Y0122512D01*
X0122533Y0122524D01*
X0122464Y0122539D01*
X0122396Y0122558D01*
X0122330Y0122581D01*
X0122265Y0122608D01*
X0122201Y0122638D01*
X0122139Y0122671D01*
X0122079Y0122708D01*
X0122021Y0122748D01*
X0121966Y0122791D01*
X0121912Y0122838D01*
X0121862Y0122887D01*
X0121814Y0122939D01*
X0121769Y0122993D01*
X0121728Y0123050D01*
X0121689Y0123109D01*
X0121654Y0123170D01*
X0121622Y0123233D01*
X0121594Y0123297D01*
X0121569Y0123363D01*
X0121548Y0123430D01*
X0121531Y0123499D01*
X0121517Y0123568D01*
X0121508Y0123637D01*
X0121502Y0123708D01*
X0121500Y0123778D01*
X0121500Y0127100D01*
X0126150Y0122500D02*
X0128706Y0122500D01*
X0126150Y0122500D02*
X0128322Y0125056D01*
X0127556Y0127100D02*
X0127482Y0127098D01*
X0127408Y0127093D01*
X0127334Y0127083D01*
X0127261Y0127070D01*
X0127188Y0127054D01*
X0127117Y0127033D01*
X0127047Y0127009D01*
X0126978Y0126982D01*
X0126910Y0126951D01*
X0126844Y0126917D01*
X0126780Y0126880D01*
X0126718Y0126839D01*
X0126658Y0126795D01*
X0126600Y0126749D01*
X0126544Y0126699D01*
X0126491Y0126647D01*
X0126441Y0126592D01*
X0126394Y0126535D01*
X0126350Y0126475D01*
X0126308Y0126413D01*
X0126270Y0126350D01*
X0126235Y0126284D01*
X0126204Y0126217D01*
X0126176Y0126148D01*
X0126151Y0126078D01*
X0128322Y0125056D02*
X0128369Y0125103D01*
X0128413Y0125153D01*
X0128455Y0125205D01*
X0128494Y0125259D01*
X0128529Y0125315D01*
X0128562Y0125373D01*
X0128592Y0125433D01*
X0128618Y0125494D01*
X0128641Y0125557D01*
X0128660Y0125621D01*
X0128676Y0125685D01*
X0128689Y0125751D01*
X0128698Y0125817D01*
X0128703Y0125883D01*
X0128705Y0125950D01*
X0128706Y0125950D02*
X0128704Y0126017D01*
X0128698Y0126084D01*
X0128689Y0126150D01*
X0128675Y0126215D01*
X0128658Y0126280D01*
X0128637Y0126343D01*
X0128612Y0126405D01*
X0128584Y0126466D01*
X0128552Y0126525D01*
X0128517Y0126582D01*
X0128478Y0126637D01*
X0128437Y0126689D01*
X0128392Y0126739D01*
X0128345Y0126786D01*
X0128295Y0126831D01*
X0128243Y0126872D01*
X0128188Y0126911D01*
X0128131Y0126946D01*
X0128072Y0126978D01*
X0128011Y0127006D01*
X0127949Y0127031D01*
X0127886Y0127052D01*
X0127821Y0127069D01*
X0127756Y0127083D01*
X0127690Y0127092D01*
X0127623Y0127098D01*
X0127556Y0127100D01*
X0124112Y0118824D02*
X0123090Y0115247D01*
X0125645Y0115247D01*
X0124879Y0116269D02*
X0124879Y0114224D01*
X0121371Y0114224D02*
X0120349Y0114224D01*
X0120349Y0114225D02*
X0120287Y0114227D01*
X0120226Y0114232D01*
X0120165Y0114242D01*
X0120104Y0114255D01*
X0120045Y0114271D01*
X0119987Y0114291D01*
X0119930Y0114315D01*
X0119874Y0114342D01*
X0119820Y0114372D01*
X0119768Y0114406D01*
X0119719Y0114442D01*
X0119671Y0114482D01*
X0119626Y0114524D01*
X0119584Y0114569D01*
X0119544Y0114617D01*
X0119508Y0114666D01*
X0119474Y0114718D01*
X0119444Y0114772D01*
X0119417Y0114828D01*
X0119393Y0114885D01*
X0119373Y0114943D01*
X0119357Y0115002D01*
X0119344Y0115063D01*
X0119334Y0115124D01*
X0119329Y0115185D01*
X0119327Y0115247D01*
X0119327Y0117802D01*
X0119329Y0117864D01*
X0119334Y0117925D01*
X0119344Y0117986D01*
X0119357Y0118047D01*
X0119373Y0118106D01*
X0119393Y0118164D01*
X0119417Y0118221D01*
X0119444Y0118277D01*
X0119474Y0118331D01*
X0119508Y0118383D01*
X0119544Y0118432D01*
X0119584Y0118480D01*
X0119626Y0118525D01*
X0119671Y0118567D01*
X0119719Y0118606D01*
X0119768Y0118643D01*
X0119820Y0118677D01*
X0119874Y0118707D01*
X0119930Y0118734D01*
X0119987Y0118758D01*
X0120045Y0118778D01*
X0120104Y0118794D01*
X0120165Y0118807D01*
X0120226Y0118817D01*
X0120287Y0118822D01*
X0120349Y0118824D01*
X0121371Y0118824D01*
X0109206Y0114000D02*
X0106650Y0114000D01*
X0107928Y0114000D02*
X0107928Y0118600D01*
X0106650Y0117578D01*
X0104556Y0118600D02*
X0104556Y0115278D01*
X0104554Y0115208D01*
X0104548Y0115137D01*
X0104539Y0115068D01*
X0104525Y0114999D01*
X0104508Y0114930D01*
X0104487Y0114863D01*
X0104462Y0114797D01*
X0104434Y0114733D01*
X0104402Y0114670D01*
X0104367Y0114609D01*
X0104328Y0114550D01*
X0104287Y0114493D01*
X0104242Y0114439D01*
X0104194Y0114387D01*
X0104144Y0114338D01*
X0104090Y0114291D01*
X0104035Y0114248D01*
X0103977Y0114208D01*
X0103917Y0114171D01*
X0103855Y0114138D01*
X0103791Y0114108D01*
X0103726Y0114081D01*
X0103660Y0114058D01*
X0103592Y0114039D01*
X0103523Y0114024D01*
X0103454Y0114012D01*
X0103384Y0114004D01*
X0103313Y0114000D01*
X0103243Y0114000D01*
X0103172Y0114004D01*
X0103102Y0114012D01*
X0103033Y0114024D01*
X0102964Y0114039D01*
X0102896Y0114058D01*
X0102830Y0114081D01*
X0102765Y0114108D01*
X0102701Y0114138D01*
X0102639Y0114171D01*
X0102579Y0114208D01*
X0102521Y0114248D01*
X0102466Y0114291D01*
X0102412Y0114338D01*
X0102362Y0114387D01*
X0102314Y0114439D01*
X0102269Y0114493D01*
X0102228Y0114550D01*
X0102189Y0114609D01*
X0102154Y0114670D01*
X0102122Y0114733D01*
X0102094Y0114797D01*
X0102069Y0114863D01*
X0102048Y0114930D01*
X0102031Y0114999D01*
X0102017Y0115068D01*
X0102008Y0115137D01*
X0102002Y0115208D01*
X0102000Y0115278D01*
X0102000Y0118600D01*
X0114932Y0069179D02*
X0116209Y0069179D01*
X0114932Y0069179D02*
X0114932Y0064579D01*
X0114932Y0066623D02*
X0116209Y0066623D01*
X0116465Y0066623D02*
X0117487Y0064579D01*
X0119403Y0064579D02*
X0121958Y0064579D01*
X0119403Y0064579D02*
X0121575Y0067134D01*
X0120808Y0069178D02*
X0120734Y0069176D01*
X0120660Y0069171D01*
X0120586Y0069161D01*
X0120513Y0069148D01*
X0120440Y0069132D01*
X0120369Y0069111D01*
X0120299Y0069087D01*
X0120230Y0069060D01*
X0120162Y0069029D01*
X0120096Y0068995D01*
X0120032Y0068958D01*
X0119970Y0068917D01*
X0119910Y0068873D01*
X0119852Y0068827D01*
X0119796Y0068777D01*
X0119743Y0068725D01*
X0119693Y0068670D01*
X0119646Y0068613D01*
X0119602Y0068553D01*
X0119560Y0068491D01*
X0119522Y0068428D01*
X0119487Y0068362D01*
X0119456Y0068295D01*
X0119428Y0068226D01*
X0119403Y0068156D01*
X0121575Y0067135D02*
X0121622Y0067182D01*
X0121666Y0067232D01*
X0121708Y0067284D01*
X0121747Y0067338D01*
X0121782Y0067394D01*
X0121815Y0067452D01*
X0121845Y0067512D01*
X0121871Y0067573D01*
X0121894Y0067636D01*
X0121913Y0067700D01*
X0121929Y0067764D01*
X0121942Y0067830D01*
X0121951Y0067896D01*
X0121956Y0067962D01*
X0121958Y0068029D01*
X0121956Y0068096D01*
X0121950Y0068163D01*
X0121941Y0068229D01*
X0121927Y0068294D01*
X0121910Y0068359D01*
X0121889Y0068422D01*
X0121864Y0068484D01*
X0121836Y0068545D01*
X0121804Y0068604D01*
X0121769Y0068661D01*
X0121730Y0068716D01*
X0121689Y0068768D01*
X0121644Y0068818D01*
X0121597Y0068865D01*
X0121547Y0068910D01*
X0121495Y0068951D01*
X0121440Y0068990D01*
X0121383Y0069025D01*
X0121324Y0069057D01*
X0121263Y0069085D01*
X0121201Y0069110D01*
X0121138Y0069131D01*
X0121073Y0069148D01*
X0121008Y0069162D01*
X0120942Y0069171D01*
X0120875Y0069177D01*
X0120808Y0069179D01*
X0116209Y0069179D02*
X0116279Y0069177D01*
X0116350Y0069171D01*
X0116419Y0069162D01*
X0116488Y0069148D01*
X0116557Y0069131D01*
X0116624Y0069110D01*
X0116690Y0069085D01*
X0116754Y0069057D01*
X0116817Y0069025D01*
X0116878Y0068990D01*
X0116937Y0068951D01*
X0116994Y0068910D01*
X0117048Y0068865D01*
X0117100Y0068817D01*
X0117149Y0068767D01*
X0117196Y0068713D01*
X0117239Y0068658D01*
X0117279Y0068600D01*
X0117316Y0068540D01*
X0117349Y0068478D01*
X0117379Y0068414D01*
X0117406Y0068349D01*
X0117429Y0068283D01*
X0117448Y0068215D01*
X0117463Y0068146D01*
X0117475Y0068077D01*
X0117483Y0068007D01*
X0117487Y0067936D01*
X0117487Y0067866D01*
X0117483Y0067795D01*
X0117475Y0067725D01*
X0117463Y0067656D01*
X0117448Y0067587D01*
X0117429Y0067519D01*
X0117406Y0067453D01*
X0117379Y0067388D01*
X0117349Y0067324D01*
X0117316Y0067262D01*
X0117279Y0067202D01*
X0117239Y0067144D01*
X0117196Y0067089D01*
X0117149Y0067035D01*
X0117100Y0066985D01*
X0117048Y0066937D01*
X0116994Y0066892D01*
X0116937Y0066851D01*
X0116878Y0066812D01*
X0116817Y0066777D01*
X0116754Y0066745D01*
X0116690Y0066717D01*
X0116624Y0066692D01*
X0116557Y0066671D01*
X0116488Y0066654D01*
X0116419Y0066640D01*
X0116350Y0066631D01*
X0116279Y0066625D01*
X0116209Y0066623D01*
X0129932Y0066623D02*
X0131209Y0066623D01*
X0131465Y0066623D02*
X0132487Y0064579D01*
X0129932Y0064579D02*
X0129932Y0069179D01*
X0131209Y0069179D01*
X0131279Y0069177D01*
X0131350Y0069171D01*
X0131419Y0069162D01*
X0131488Y0069148D01*
X0131557Y0069131D01*
X0131624Y0069110D01*
X0131690Y0069085D01*
X0131754Y0069057D01*
X0131817Y0069025D01*
X0131878Y0068990D01*
X0131937Y0068951D01*
X0131994Y0068910D01*
X0132048Y0068865D01*
X0132100Y0068817D01*
X0132149Y0068767D01*
X0132196Y0068713D01*
X0132239Y0068658D01*
X0132279Y0068600D01*
X0132316Y0068540D01*
X0132349Y0068478D01*
X0132379Y0068414D01*
X0132406Y0068349D01*
X0132429Y0068283D01*
X0132448Y0068215D01*
X0132463Y0068146D01*
X0132475Y0068077D01*
X0132483Y0068007D01*
X0132487Y0067936D01*
X0132487Y0067866D01*
X0132483Y0067795D01*
X0132475Y0067725D01*
X0132463Y0067656D01*
X0132448Y0067587D01*
X0132429Y0067519D01*
X0132406Y0067453D01*
X0132379Y0067388D01*
X0132349Y0067324D01*
X0132316Y0067262D01*
X0132279Y0067202D01*
X0132239Y0067144D01*
X0132196Y0067089D01*
X0132149Y0067035D01*
X0132100Y0066985D01*
X0132048Y0066937D01*
X0131994Y0066892D01*
X0131937Y0066851D01*
X0131878Y0066812D01*
X0131817Y0066777D01*
X0131754Y0066745D01*
X0131690Y0066717D01*
X0131624Y0066692D01*
X0131557Y0066671D01*
X0131488Y0066654D01*
X0131419Y0066640D01*
X0131350Y0066631D01*
X0131279Y0066625D01*
X0131209Y0066623D01*
X0134403Y0068157D02*
X0135680Y0069179D01*
X0135680Y0064579D01*
X0134403Y0064579D02*
X0136958Y0064579D01*
D12*
X0136040Y0070213D02*
X0136040Y0084387D01*
X0128560Y0084387D01*
X0128560Y0070213D01*
X0136040Y0070213D01*
X0121040Y0070213D02*
X0121040Y0084387D01*
X0113560Y0084387D01*
X0113560Y0070213D01*
X0121040Y0070213D01*
X0114607Y0091477D02*
X0127993Y0091477D01*
X0127993Y0110769D01*
X0114607Y0110769D01*
X0114607Y0091477D01*
X0111300Y0113170D02*
X0111302Y0113240D01*
X0111308Y0113310D01*
X0111318Y0113379D01*
X0111331Y0113448D01*
X0111349Y0113516D01*
X0111370Y0113583D01*
X0111395Y0113648D01*
X0111424Y0113712D01*
X0111456Y0113775D01*
X0111492Y0113835D01*
X0111531Y0113893D01*
X0111573Y0113949D01*
X0111618Y0114003D01*
X0111666Y0114054D01*
X0111717Y0114102D01*
X0111771Y0114147D01*
X0111827Y0114189D01*
X0111885Y0114228D01*
X0111945Y0114264D01*
X0112008Y0114296D01*
X0112072Y0114325D01*
X0112137Y0114350D01*
X0112204Y0114371D01*
X0112272Y0114389D01*
X0112341Y0114402D01*
X0112410Y0114412D01*
X0112480Y0114418D01*
X0112550Y0114420D01*
X0112620Y0114418D01*
X0112690Y0114412D01*
X0112759Y0114402D01*
X0112828Y0114389D01*
X0112896Y0114371D01*
X0112963Y0114350D01*
X0113028Y0114325D01*
X0113092Y0114296D01*
X0113155Y0114264D01*
X0113215Y0114228D01*
X0113273Y0114189D01*
X0113329Y0114147D01*
X0113383Y0114102D01*
X0113434Y0114054D01*
X0113482Y0114003D01*
X0113527Y0113949D01*
X0113569Y0113893D01*
X0113608Y0113835D01*
X0113644Y0113775D01*
X0113676Y0113712D01*
X0113705Y0113648D01*
X0113730Y0113583D01*
X0113751Y0113516D01*
X0113769Y0113448D01*
X0113782Y0113379D01*
X0113792Y0113310D01*
X0113798Y0113240D01*
X0113800Y0113170D01*
X0113798Y0113100D01*
X0113792Y0113030D01*
X0113782Y0112961D01*
X0113769Y0112892D01*
X0113751Y0112824D01*
X0113730Y0112757D01*
X0113705Y0112692D01*
X0113676Y0112628D01*
X0113644Y0112565D01*
X0113608Y0112505D01*
X0113569Y0112447D01*
X0113527Y0112391D01*
X0113482Y0112337D01*
X0113434Y0112286D01*
X0113383Y0112238D01*
X0113329Y0112193D01*
X0113273Y0112151D01*
X0113215Y0112112D01*
X0113155Y0112076D01*
X0113092Y0112044D01*
X0113028Y0112015D01*
X0112963Y0111990D01*
X0112896Y0111969D01*
X0112828Y0111951D01*
X0112759Y0111938D01*
X0112690Y0111928D01*
X0112620Y0111922D01*
X0112550Y0111920D01*
X0112480Y0111922D01*
X0112410Y0111928D01*
X0112341Y0111938D01*
X0112272Y0111951D01*
X0112204Y0111969D01*
X0112137Y0111990D01*
X0112072Y0112015D01*
X0112008Y0112044D01*
X0111945Y0112076D01*
X0111885Y0112112D01*
X0111827Y0112151D01*
X0111771Y0112193D01*
X0111717Y0112238D01*
X0111666Y0112286D01*
X0111618Y0112337D01*
X0111573Y0112391D01*
X0111531Y0112447D01*
X0111492Y0112505D01*
X0111456Y0112565D01*
X0111424Y0112628D01*
X0111395Y0112692D01*
X0111370Y0112757D01*
X0111349Y0112824D01*
X0111331Y0112892D01*
X0111318Y0112961D01*
X0111308Y0113030D01*
X0111302Y0113100D01*
X0111300Y0113170D01*
X0128591Y0113347D02*
X0128591Y0119253D01*
X0140009Y0119253D01*
X0140009Y0113347D01*
X0128591Y0113347D01*
X0122973Y0129591D02*
X0119627Y0129591D01*
X0119627Y0141009D01*
X0122973Y0141009D01*
X0122973Y0129591D01*
X0110867Y0139040D02*
X0110869Y0139102D01*
X0110875Y0139165D01*
X0110885Y0139226D01*
X0110899Y0139287D01*
X0110916Y0139347D01*
X0110937Y0139406D01*
X0110963Y0139463D01*
X0110991Y0139518D01*
X0111023Y0139572D01*
X0111059Y0139623D01*
X0111097Y0139673D01*
X0111139Y0139719D01*
X0111183Y0139763D01*
X0111231Y0139804D01*
X0111280Y0139842D01*
X0111332Y0139876D01*
X0111386Y0139907D01*
X0111442Y0139935D01*
X0111500Y0139959D01*
X0111559Y0139980D01*
X0111619Y0139996D01*
X0111680Y0140009D01*
X0111742Y0140018D01*
X0111804Y0140023D01*
X0111867Y0140024D01*
X0111929Y0140021D01*
X0111991Y0140014D01*
X0112053Y0140003D01*
X0112113Y0139988D01*
X0112173Y0139970D01*
X0112231Y0139948D01*
X0112288Y0139922D01*
X0112343Y0139892D01*
X0112396Y0139859D01*
X0112447Y0139823D01*
X0112495Y0139784D01*
X0112541Y0139741D01*
X0112584Y0139696D01*
X0112624Y0139648D01*
X0112661Y0139598D01*
X0112695Y0139545D01*
X0112726Y0139491D01*
X0112752Y0139435D01*
X0112776Y0139377D01*
X0112795Y0139317D01*
X0112811Y0139257D01*
X0112823Y0139195D01*
X0112831Y0139134D01*
X0112835Y0139071D01*
X0112835Y0139009D01*
X0112831Y0138946D01*
X0112823Y0138885D01*
X0112811Y0138823D01*
X0112795Y0138763D01*
X0112776Y0138703D01*
X0112752Y0138645D01*
X0112726Y0138589D01*
X0112695Y0138535D01*
X0112661Y0138482D01*
X0112624Y0138432D01*
X0112584Y0138384D01*
X0112541Y0138339D01*
X0112495Y0138296D01*
X0112447Y0138257D01*
X0112396Y0138221D01*
X0112343Y0138188D01*
X0112288Y0138158D01*
X0112231Y0138132D01*
X0112173Y0138110D01*
X0112113Y0138092D01*
X0112053Y0138077D01*
X0111991Y0138066D01*
X0111929Y0138059D01*
X0111867Y0138056D01*
X0111804Y0138057D01*
X0111742Y0138062D01*
X0111680Y0138071D01*
X0111619Y0138084D01*
X0111559Y0138100D01*
X0111500Y0138121D01*
X0111442Y0138145D01*
X0111386Y0138173D01*
X0111332Y0138204D01*
X0111280Y0138238D01*
X0111231Y0138276D01*
X0111183Y0138317D01*
X0111139Y0138361D01*
X0111097Y0138407D01*
X0111059Y0138457D01*
X0111023Y0138508D01*
X0110991Y0138562D01*
X0110963Y0138617D01*
X0110937Y0138674D01*
X0110916Y0138733D01*
X0110899Y0138793D01*
X0110885Y0138854D01*
X0110875Y0138915D01*
X0110869Y0138978D01*
X0110867Y0139040D01*
X0113347Y0143591D02*
X0119253Y0143591D01*
X0119253Y0155009D01*
X0113347Y0155009D01*
X0113347Y0143591D01*
X0123347Y0143591D02*
X0129253Y0143591D01*
X0129253Y0155009D01*
X0123347Y0155009D01*
X0123347Y0143591D01*
X0156300Y0156300D02*
X0156300Y0013800D01*
X0141300Y0013800D01*
X0141457Y0010670D02*
X0141457Y0035906D01*
X0101143Y0035906D01*
X0101143Y0010670D01*
X0141457Y0010670D01*
X0101300Y0013800D02*
X0086300Y0013800D01*
X0086300Y0156300D01*
X0156300Y0156300D01*
X0160985Y0091536D02*
X0160985Y0071064D01*
X0171615Y0071064D01*
X0171615Y0091536D01*
X0160985Y0091536D01*
X0085253Y0029009D02*
X0085253Y0017591D01*
X0079347Y0017591D01*
X0079347Y0029009D01*
X0085253Y0029009D01*
X0061615Y0038583D02*
X0061615Y0074017D01*
X0004528Y0074017D01*
X0004528Y0038583D01*
X0061615Y0038583D01*
X0065985Y0101064D02*
X0076615Y0101064D01*
X0076615Y0141536D01*
X0065985Y0141536D01*
X0065985Y0101064D01*
X0053800Y0111300D02*
X0053800Y0116300D01*
X0056300Y0113800D02*
X0051300Y0113800D01*
X0030552Y0121300D02*
X0030557Y0121686D01*
X0030571Y0122073D01*
X0030595Y0122458D01*
X0030628Y0122844D01*
X0030670Y0123228D01*
X0030722Y0123611D01*
X0030784Y0123992D01*
X0030855Y0124372D01*
X0030935Y0124750D01*
X0031024Y0125126D01*
X0031122Y0125500D01*
X0031230Y0125871D01*
X0031347Y0126240D01*
X0031473Y0126605D01*
X0031607Y0126968D01*
X0031751Y0127326D01*
X0031903Y0127682D01*
X0032064Y0128033D01*
X0032234Y0128380D01*
X0032412Y0128724D01*
X0032598Y0129062D01*
X0032792Y0129396D01*
X0032995Y0129725D01*
X0033206Y0130049D01*
X0033425Y0130368D01*
X0033651Y0130681D01*
X0033885Y0130989D01*
X0034127Y0131290D01*
X0034375Y0131586D01*
X0034632Y0131876D01*
X0034895Y0132159D01*
X0035164Y0132436D01*
X0035441Y0132705D01*
X0035724Y0132968D01*
X0036014Y0133225D01*
X0036310Y0133473D01*
X0036611Y0133715D01*
X0036919Y0133949D01*
X0037232Y0134175D01*
X0037551Y0134394D01*
X0037875Y0134605D01*
X0038204Y0134808D01*
X0038538Y0135002D01*
X0038876Y0135188D01*
X0039220Y0135366D01*
X0039567Y0135536D01*
X0039918Y0135697D01*
X0040274Y0135849D01*
X0040632Y0135993D01*
X0040995Y0136127D01*
X0041360Y0136253D01*
X0041729Y0136370D01*
X0042100Y0136478D01*
X0042474Y0136576D01*
X0042850Y0136665D01*
X0043228Y0136745D01*
X0043608Y0136816D01*
X0043989Y0136878D01*
X0044372Y0136930D01*
X0044756Y0136972D01*
X0045142Y0137005D01*
X0045527Y0137029D01*
X0045914Y0137043D01*
X0046300Y0137048D01*
X0046686Y0137043D01*
X0047073Y0137029D01*
X0047458Y0137005D01*
X0047844Y0136972D01*
X0048228Y0136930D01*
X0048611Y0136878D01*
X0048992Y0136816D01*
X0049372Y0136745D01*
X0049750Y0136665D01*
X0050126Y0136576D01*
X0050500Y0136478D01*
X0050871Y0136370D01*
X0051240Y0136253D01*
X0051605Y0136127D01*
X0051968Y0135993D01*
X0052326Y0135849D01*
X0052682Y0135697D01*
X0053033Y0135536D01*
X0053380Y0135366D01*
X0053724Y0135188D01*
X0054062Y0135002D01*
X0054396Y0134808D01*
X0054725Y0134605D01*
X0055049Y0134394D01*
X0055368Y0134175D01*
X0055681Y0133949D01*
X0055989Y0133715D01*
X0056290Y0133473D01*
X0056586Y0133225D01*
X0056876Y0132968D01*
X0057159Y0132705D01*
X0057436Y0132436D01*
X0057705Y0132159D01*
X0057968Y0131876D01*
X0058225Y0131586D01*
X0058473Y0131290D01*
X0058715Y0130989D01*
X0058949Y0130681D01*
X0059175Y0130368D01*
X0059394Y0130049D01*
X0059605Y0129725D01*
X0059808Y0129396D01*
X0060002Y0129062D01*
X0060188Y0128724D01*
X0060366Y0128380D01*
X0060536Y0128033D01*
X0060697Y0127682D01*
X0060849Y0127326D01*
X0060993Y0126968D01*
X0061127Y0126605D01*
X0061253Y0126240D01*
X0061370Y0125871D01*
X0061478Y0125500D01*
X0061576Y0125126D01*
X0061665Y0124750D01*
X0061745Y0124372D01*
X0061816Y0123992D01*
X0061878Y0123611D01*
X0061930Y0123228D01*
X0061972Y0122844D01*
X0062005Y0122458D01*
X0062029Y0122073D01*
X0062043Y0121686D01*
X0062048Y0121300D01*
X0062043Y0120914D01*
X0062029Y0120527D01*
X0062005Y0120142D01*
X0061972Y0119756D01*
X0061930Y0119372D01*
X0061878Y0118989D01*
X0061816Y0118608D01*
X0061745Y0118228D01*
X0061665Y0117850D01*
X0061576Y0117474D01*
X0061478Y0117100D01*
X0061370Y0116729D01*
X0061253Y0116360D01*
X0061127Y0115995D01*
X0060993Y0115632D01*
X0060849Y0115274D01*
X0060697Y0114918D01*
X0060536Y0114567D01*
X0060366Y0114220D01*
X0060188Y0113876D01*
X0060002Y0113538D01*
X0059808Y0113204D01*
X0059605Y0112875D01*
X0059394Y0112551D01*
X0059175Y0112232D01*
X0058949Y0111919D01*
X0058715Y0111611D01*
X0058473Y0111310D01*
X0058225Y0111014D01*
X0057968Y0110724D01*
X0057705Y0110441D01*
X0057436Y0110164D01*
X0057159Y0109895D01*
X0056876Y0109632D01*
X0056586Y0109375D01*
X0056290Y0109127D01*
X0055989Y0108885D01*
X0055681Y0108651D01*
X0055368Y0108425D01*
X0055049Y0108206D01*
X0054725Y0107995D01*
X0054396Y0107792D01*
X0054062Y0107598D01*
X0053724Y0107412D01*
X0053380Y0107234D01*
X0053033Y0107064D01*
X0052682Y0106903D01*
X0052326Y0106751D01*
X0051968Y0106607D01*
X0051605Y0106473D01*
X0051240Y0106347D01*
X0050871Y0106230D01*
X0050500Y0106122D01*
X0050126Y0106024D01*
X0049750Y0105935D01*
X0049372Y0105855D01*
X0048992Y0105784D01*
X0048611Y0105722D01*
X0048228Y0105670D01*
X0047844Y0105628D01*
X0047458Y0105595D01*
X0047073Y0105571D01*
X0046686Y0105557D01*
X0046300Y0105552D01*
X0045914Y0105557D01*
X0045527Y0105571D01*
X0045142Y0105595D01*
X0044756Y0105628D01*
X0044372Y0105670D01*
X0043989Y0105722D01*
X0043608Y0105784D01*
X0043228Y0105855D01*
X0042850Y0105935D01*
X0042474Y0106024D01*
X0042100Y0106122D01*
X0041729Y0106230D01*
X0041360Y0106347D01*
X0040995Y0106473D01*
X0040632Y0106607D01*
X0040274Y0106751D01*
X0039918Y0106903D01*
X0039567Y0107064D01*
X0039220Y0107234D01*
X0038876Y0107412D01*
X0038538Y0107598D01*
X0038204Y0107792D01*
X0037875Y0107995D01*
X0037551Y0108206D01*
X0037232Y0108425D01*
X0036919Y0108651D01*
X0036611Y0108885D01*
X0036310Y0109127D01*
X0036014Y0109375D01*
X0035724Y0109632D01*
X0035441Y0109895D01*
X0035164Y0110164D01*
X0034895Y0110441D01*
X0034632Y0110724D01*
X0034375Y0111014D01*
X0034127Y0111310D01*
X0033885Y0111611D01*
X0033651Y0111919D01*
X0033425Y0112232D01*
X0033206Y0112551D01*
X0032995Y0112875D01*
X0032792Y0113204D01*
X0032598Y0113538D01*
X0032412Y0113876D01*
X0032234Y0114220D01*
X0032064Y0114567D01*
X0031903Y0114918D01*
X0031751Y0115274D01*
X0031607Y0115632D01*
X0031473Y0115995D01*
X0031347Y0116360D01*
X0031230Y0116729D01*
X0031122Y0117100D01*
X0031024Y0117474D01*
X0030935Y0117850D01*
X0030855Y0118228D01*
X0030784Y0118608D01*
X0030722Y0118989D01*
X0030670Y0119372D01*
X0030628Y0119756D01*
X0030595Y0120142D01*
X0030571Y0120527D01*
X0030557Y0120914D01*
X0030552Y0121300D01*
X0026615Y0101064D02*
X0015985Y0101064D01*
X0015985Y0141536D01*
X0026615Y0141536D01*
X0026615Y0101064D01*
X0065985Y0146064D02*
X0076615Y0146064D01*
X0076615Y0166536D01*
X0065985Y0166536D01*
X0065985Y0146064D01*
D13*
X0062413Y0141850D02*
X0061769Y0139594D01*
X0063380Y0139594D01*
X0062897Y0140239D02*
X0062897Y0138950D01*
X0060417Y0139594D02*
X0060417Y0141850D01*
X0060416Y0139594D02*
X0060414Y0139546D01*
X0060409Y0139498D01*
X0060400Y0139451D01*
X0060387Y0139404D01*
X0060371Y0139359D01*
X0060352Y0139315D01*
X0060330Y0139272D01*
X0060304Y0139231D01*
X0060275Y0139192D01*
X0060244Y0139156D01*
X0060210Y0139122D01*
X0060174Y0139091D01*
X0060135Y0139062D01*
X0060094Y0139036D01*
X0060051Y0139014D01*
X0060007Y0138995D01*
X0059962Y0138979D01*
X0059915Y0138966D01*
X0059868Y0138957D01*
X0059820Y0138952D01*
X0059772Y0138950D01*
X0059450Y0138950D01*
X0060220Y0163750D02*
X0060542Y0163750D01*
X0060590Y0163752D01*
X0060638Y0163757D01*
X0060685Y0163766D01*
X0060732Y0163779D01*
X0060777Y0163795D01*
X0060821Y0163814D01*
X0060864Y0163836D01*
X0060905Y0163862D01*
X0060944Y0163891D01*
X0060980Y0163922D01*
X0061014Y0163956D01*
X0061045Y0163992D01*
X0061074Y0164031D01*
X0061100Y0164072D01*
X0061122Y0164115D01*
X0061141Y0164159D01*
X0061157Y0164204D01*
X0061170Y0164251D01*
X0061179Y0164298D01*
X0061184Y0164346D01*
X0061186Y0164394D01*
X0061187Y0164394D02*
X0061187Y0166650D01*
X0062539Y0166006D02*
X0063344Y0166650D01*
X0063344Y0163750D01*
X0062539Y0163750D02*
X0064150Y0163750D01*
X0012735Y0141850D02*
X0011769Y0141850D01*
X0012735Y0141850D02*
X0012784Y0141848D01*
X0012833Y0141842D01*
X0012882Y0141833D01*
X0012929Y0141820D01*
X0012976Y0141803D01*
X0013021Y0141783D01*
X0013064Y0141760D01*
X0013106Y0141733D01*
X0013145Y0141703D01*
X0013182Y0141670D01*
X0013216Y0141634D01*
X0013247Y0141596D01*
X0013276Y0141556D01*
X0013301Y0141514D01*
X0013323Y0141469D01*
X0013341Y0141424D01*
X0013356Y0141377D01*
X0013367Y0141329D01*
X0013375Y0141280D01*
X0013379Y0141231D01*
X0013379Y0141181D01*
X0013375Y0141132D01*
X0013367Y0141083D01*
X0013356Y0141035D01*
X0013341Y0140988D01*
X0013323Y0140943D01*
X0013301Y0140898D01*
X0013276Y0140856D01*
X0013247Y0140816D01*
X0013216Y0140778D01*
X0013182Y0140742D01*
X0013145Y0140709D01*
X0013106Y0140679D01*
X0013064Y0140652D01*
X0013021Y0140629D01*
X0012976Y0140609D01*
X0012929Y0140592D01*
X0012882Y0140579D01*
X0012833Y0140570D01*
X0012784Y0140564D01*
X0012735Y0140562D01*
X0012735Y0140561D02*
X0012091Y0140561D01*
X0012574Y0140562D02*
X0012629Y0140560D01*
X0012684Y0140554D01*
X0012738Y0140545D01*
X0012791Y0140532D01*
X0012844Y0140515D01*
X0012895Y0140495D01*
X0012945Y0140472D01*
X0012993Y0140445D01*
X0013039Y0140414D01*
X0013083Y0140381D01*
X0013124Y0140345D01*
X0013163Y0140306D01*
X0013199Y0140265D01*
X0013232Y0140221D01*
X0013263Y0140175D01*
X0013290Y0140127D01*
X0013313Y0140077D01*
X0013333Y0140026D01*
X0013350Y0139973D01*
X0013363Y0139920D01*
X0013372Y0139866D01*
X0013378Y0139811D01*
X0013380Y0139756D01*
X0013378Y0139701D01*
X0013372Y0139646D01*
X0013363Y0139592D01*
X0013350Y0139539D01*
X0013333Y0139486D01*
X0013313Y0139435D01*
X0013290Y0139385D01*
X0013263Y0139337D01*
X0013232Y0139291D01*
X0013199Y0139247D01*
X0013163Y0139206D01*
X0013124Y0139167D01*
X0013083Y0139131D01*
X0013039Y0139098D01*
X0012993Y0139067D01*
X0012945Y0139040D01*
X0012895Y0139017D01*
X0012844Y0138997D01*
X0012791Y0138980D01*
X0012738Y0138967D01*
X0012684Y0138958D01*
X0012629Y0138952D01*
X0012574Y0138950D01*
X0011769Y0138950D01*
X0010417Y0139594D02*
X0010417Y0141850D01*
X0010416Y0139594D02*
X0010414Y0139546D01*
X0010409Y0139498D01*
X0010400Y0139451D01*
X0010387Y0139404D01*
X0010371Y0139359D01*
X0010352Y0139315D01*
X0010330Y0139272D01*
X0010304Y0139231D01*
X0010275Y0139192D01*
X0010244Y0139156D01*
X0010210Y0139122D01*
X0010174Y0139091D01*
X0010135Y0139062D01*
X0010094Y0139036D01*
X0010051Y0139014D01*
X0010007Y0138995D01*
X0009962Y0138979D01*
X0009915Y0138966D01*
X0009868Y0138957D01*
X0009820Y0138952D01*
X0009772Y0138950D01*
X0009450Y0138950D01*
X0160450Y0093950D02*
X0160772Y0093950D01*
X0160820Y0093952D01*
X0160868Y0093957D01*
X0160915Y0093966D01*
X0160962Y0093979D01*
X0161007Y0093995D01*
X0161051Y0094014D01*
X0161094Y0094036D01*
X0161135Y0094062D01*
X0161174Y0094091D01*
X0161210Y0094122D01*
X0161244Y0094156D01*
X0161275Y0094192D01*
X0161304Y0094231D01*
X0161330Y0094272D01*
X0161352Y0094315D01*
X0161371Y0094359D01*
X0161387Y0094404D01*
X0161400Y0094451D01*
X0161409Y0094498D01*
X0161414Y0094546D01*
X0161416Y0094594D01*
X0161417Y0094594D02*
X0161417Y0096850D01*
X0164138Y0095561D02*
X0164175Y0095598D01*
X0164209Y0095638D01*
X0164241Y0095680D01*
X0164269Y0095725D01*
X0164295Y0095771D01*
X0164317Y0095818D01*
X0164336Y0095867D01*
X0164352Y0095917D01*
X0164364Y0095968D01*
X0164373Y0096020D01*
X0164378Y0096072D01*
X0164380Y0096125D01*
X0164138Y0095561D02*
X0162769Y0093950D01*
X0164380Y0093950D01*
X0162769Y0096206D02*
X0162789Y0096261D01*
X0162812Y0096315D01*
X0162839Y0096367D01*
X0162869Y0096417D01*
X0162901Y0096466D01*
X0162937Y0096512D01*
X0162976Y0096556D01*
X0163017Y0096597D01*
X0163061Y0096636D01*
X0163107Y0096672D01*
X0163156Y0096705D01*
X0163206Y0096735D01*
X0163258Y0096761D01*
X0163312Y0096785D01*
X0163367Y0096804D01*
X0163423Y0096821D01*
X0163480Y0096833D01*
X0163538Y0096843D01*
X0163596Y0096848D01*
X0163655Y0096850D01*
X0163707Y0096848D01*
X0163758Y0096843D01*
X0163809Y0096833D01*
X0163859Y0096821D01*
X0163908Y0096804D01*
X0163956Y0096784D01*
X0164002Y0096761D01*
X0164047Y0096735D01*
X0164089Y0096705D01*
X0164130Y0096673D01*
X0164168Y0096638D01*
X0164203Y0096600D01*
X0164235Y0096559D01*
X0164265Y0096517D01*
X0164291Y0096472D01*
X0164314Y0096426D01*
X0164334Y0096378D01*
X0164351Y0096329D01*
X0164363Y0096279D01*
X0164373Y0096228D01*
X0164378Y0096177D01*
X0164380Y0096125D01*
M02*
